<svg id="menu" viewBox="0 0 34 17" xmlns="http://www.w3.org/2000/svg">
  <rect x="0" y="0" width="34" height="3"/>
  <rect x="0" y="7" width="34" height="3"/>
  <rect x="0" y="14" width="34" height="3"/>
</svg>
