<svg id="search" viewBox="0 0 15 15" xmlns="http://www.w3.org/2000/svg">
  <path d="M14.7686 13.7988L10.8428 9.87305C11.6924 8.83301 12.1611 7.52344 12.1611 6.09375C12.1611 2.72754 9.43272 0 6.06739 0C2.70206 0 0 2.72842 0 6.09375C0 9.45908 2.72813 12.1875 6.06739 12.1875C7.49678 12.1875 8.80811 11.6921 9.84669 10.868L13.7725 14.7937C13.9365 14.9326 14.1182 15 14.2969 15C14.4756 15 14.6566 14.9313 14.7941 14.794C15.0674 14.5195 15.0674 14.0742 14.7686 13.7988ZM1.40626 6.09375C1.40626 3.50918 3.50919 1.40625 6.09376 1.40625C8.67833 1.40625 10.7813 3.50918 10.7813 6.09375C10.7813 8.67832 8.67833 10.7812 6.09376 10.7812C3.50919 10.7812 1.40626 8.67773 1.40626 6.09375Z"/>
</svg>
